224 -200 120 -104 312
-24 -192 -32 8 -72 -8 -120 480
-48 -80 -40 96 -144 -136 -128 264
-128 16 -64 -112 640
992
-64 -16 -56 -24 -32 -8 -48 -88 592
-32 -80 80 -88 -80 -40 -72 -136 320
-8 -72 -16 128 -40 24 -144 -16 -168 -160 136
8 -144 -48 56 -56 -224 -56 -64 -128 -56 72
-184 -16 -24 -32 -64 -72 -112 -16 -192 -32 168
72 -64 16 -16 -48 -120 -168 432
16 -40 -144 32 -24 -72 -152 -48 400
80 -184 -64 -48 72 -216 -136 136
